<svg width="40" height="41" viewBox="0 0 40 41" fill="none" xmlns="http://www.w3.org/2000/svg">
<g clip-path="url(#clip0_269_1049)">
<path fill-rule="evenodd" clip-rule="evenodd" d="M8 20.567C8 26.533 12.333 31.494 18 32.5V23.833H15V20.5H18V17.833C18 14.833 19.933 13.167 22.667 13.167C23.533 13.167 24.467 13.3 25.333 13.433V16.5H23.8C22.333 16.5 22 17.233 22 18.167V20.5H25.2L24.667 23.833H22V32.5C27.667 31.494 32 26.534 32 20.567C32 13.93 26.6 8.5 20 8.5C13.4 8.5 8 13.93 8 20.567Z" fill="#131414"/>
</g>
<rect x="0.5" y="1" width="39" height="39" rx="9.5" stroke="#131414"/>
<defs>
<clipPath id="clip0_269_1049">
<rect width="24" height="24" fill="white" transform="translate(8 8.5)"/>
</clipPath>
</defs>
</svg>
