<svg width="40" height="41" viewBox="0 0 40 41" fill="none" xmlns="http://www.w3.org/2000/svg">
<path d="M31.6425 13.4371C30.8075 13.8071 29.9105 14.0571 28.9675 14.1701C29.9405 13.5879 30.6685 12.6715 31.0155 11.5921C30.1014 12.1351 29.1009 12.5173 28.0575 12.7221C27.3559 11.9729 26.4266 11.4764 25.4138 11.3096C24.4011 11.1427 23.3616 11.3149 22.4568 11.7993C21.5519 12.2838 20.8323 13.0534 20.4097 13.9888C19.9871 14.9241 19.8851 15.9728 20.1195 16.9721C18.2672 16.8791 16.4552 16.3976 14.8009 15.559C13.1467 14.7203 11.6874 13.5432 10.5175 12.1041C10.1175 12.7941 9.88752 13.5941 9.88752 14.4461C9.88708 15.2131 10.076 15.9683 10.4374 16.6448C10.7988 17.3213 11.3217 17.8981 11.9595 18.3241C11.2198 18.3005 10.4964 18.1007 9.84952 17.7411V17.8011C9.84945 18.8768 10.2216 19.9195 10.9027 20.7521C11.5839 21.5847 12.5321 22.156 13.5865 22.3691C12.9003 22.5548 12.1809 22.5821 11.4825 22.4491C11.78 23.3747 12.3595 24.1841 13.1399 24.764C13.9203 25.3439 14.8624 25.6653 15.8345 25.6831C14.1844 26.9785 12.1464 27.6812 10.0485 27.6781C9.6769 27.6782 9.3056 27.6565 8.93652 27.6131C11.066 28.9823 13.5449 29.7089 16.0765 29.7061C24.6465 29.7061 29.3315 22.6081 29.3315 16.4521C29.3315 16.2521 29.3265 16.0501 29.3175 15.8501C30.2288 15.1911 31.0154 14.375 31.6405 13.4401L31.6425 13.4371Z" fill="#131414"/>
<rect x="0.5" y="1" width="39" height="39" rx="9.5" stroke="#131414"/>
</svg>
